%YAML 1.1
%TAG !u! tag:unity3d.com,2011:
--- !u!74 &7400000
AnimationClip:
  m_ObjectHideFlags: 0
  m_PrefabParentObject: {fileID: 0}
  m_PrefabInternal: {fileID: 0}
  m_Name: zombie_atack
  serializedVersion: 6
  m_Legacy: 0
  m_Compressed: 0
  m_UseHighQualityCurve: 1
  m_RotationCurves: []
  m_CompressedRotationCurves: []
  m_EulerCurves: []
  m_PositionCurves: []
  m_ScaleCurves: []
  m_FloatCurves: []
  m_PPtrCurves:
  - curve:
    - time: 0
      value: {fileID: 21300000, guid: 8391480fd48b28d4facba524154bbc2b, type: 3}
    - time: 0.083333336
      value: {fileID: 21300000, guid: a53f111f518371f448bd4349e38c649f, type: 3}
    - time: 0.16666667
      value: {fileID: 21300000, guid: cf75b21ca2987364caae4fe6d1a39f4c, type: 3}
    - time: 0.25
      value: {fileID: 21300000, guid: d81e78725f041ab4a831c327061d0400, type: 3}
    - time: 0.33333334
      value: {fileID: 21300000, guid: 6d553d89412846e4ca2f4b63a358b9a1, type: 3}
    - time: 0.41666666
      value: {fileID: 21300000, guid: 131533cf6b58bf74692c33d634dd4dc4, type: 3}
    - time: 0.5
      value: {fileID: 21300000, guid: 137552fedba80f247bd0771e50f04db3, type: 3}
    - time: 0.5833333
      value: {fileID: 21300000, guid: 85ab90a07709af14eae9c854b6ca7060, type: 3}
    attribute: m_Sprite
    path: 
    classID: 212
    script: {fileID: 0}
  m_SampleRate: 12
  m_WrapMode: 0
  m_Bounds:
    m_Center: {x: 0, y: 0, z: 0}
    m_Extent: {x: 0, y: 0, z: 0}
  m_ClipBindingConstant:
    genericBindings:
    - serializedVersion: 2
      path: 0
      attribute: 0
      script: {fileID: 0}
      typeID: 212
      customType: 23
      isPPtrCurve: 1
    pptrCurveMapping:
    - {fileID: 21300000, guid: 8391480fd48b28d4facba524154bbc2b, type: 3}
    - {fileID: 21300000, guid: a53f111f518371f448bd4349e38c649f, type: 3}
    - {fileID: 21300000, guid: cf75b21ca2987364caae4fe6d1a39f4c, type: 3}
    - {fileID: 21300000, guid: d81e78725f041ab4a831c327061d0400, type: 3}
    - {fileID: 21300000, guid: 6d553d89412846e4ca2f4b63a358b9a1, type: 3}
    - {fileID: 21300000, guid: 131533cf6b58bf74692c33d634dd4dc4, type: 3}
    - {fileID: 21300000, guid: 137552fedba80f247bd0771e50f04db3, type: 3}
    - {fileID: 21300000, guid: 85ab90a07709af14eae9c854b6ca7060, type: 3}
  m_AnimationClipSettings:
    serializedVersion: 2
    m_AdditiveReferencePoseClip: {fileID: 0}
    m_AdditiveReferencePoseTime: 0
    m_StartTime: 0
    m_StopTime: 0.6666666
    m_OrientationOffsetY: 0
    m_Level: 0
    m_CycleOffset: 0
    m_HasAdditiveReferencePose: 0
    m_LoopTime: 1
    m_LoopBlend: 0
    m_LoopBlendOrientation: 0
    m_LoopBlendPositionY: 0
    m_LoopBlendPositionXZ: 0
    m_KeepOriginalOrientation: 0
    m_KeepOriginalPositionY: 1
    m_KeepOriginalPositionXZ: 0
    m_HeightFromFeet: 0
    m_Mirror: 0
  m_EditorCurves: []
  m_EulerEditorCurves: []
  m_HasGenericRootTransform: 0
  m_HasMotionFloatCurves: 0
  m_GenerateMotionCurves: 0
  m_Events: []
